{
  "name": "",
  "max_concurrent_runs": 1,
  "email_notifications": {
    "on_start": [
   
    ],
    "on_success": [
    
    ],
    "on_failure": [
      
    ]
    },

  "tasks": [
    {
      "task_key": "unit_test",
      "description": "Clean and prepare the data",
      "notebook_task": {
        "notebook_path": "TU"
      },
      "existing_cluster_id": "1228-220746-bqqkddxs",
      "timeout_seconds": 3600,
      "max_retries": 1,
      "retry_on_timeout": true
      
    },
    {
      "task_key": "to_prod",
      "description": "Perform an analysis of the data",
      "notebook_task": {
        "notebook_path": "PRO"
      },
      "depends_on": [
        {
          "task_key": "unit_test"
        }
      ],
      "existing_cluster_id": "1228-220746-bqqkddxs",
      "timeout_seconds": 3600,
      "max_retries": 1,
      "retry_on_timeout": true
    }
  ]
}
